Advent of Code by Francisco Yirá - 2023: Day 4 - Scratchcards
…
card_data <- tibble(
  input = input
) %>%
  separate(
    input,
    into = c("id", "data"),
    sep = ": "
  ) %>%
  mutate(
    id = as.integer(str_extract(id, "\\d+"))
  )

card_data

# A tibble: 212 × 2
      id data                                                                   
   <int> <chr>                                                                  
 1     1 "69 12 75 19 83 56 73 53 52 91 | 83 63 56 30 77 94 12 81 42 69 52 70  …
 2     2 "23 55 24 84 90 10 87 73 74 45 | 20 66 51 78  9 76 86 96 72 70 84 35 7…
 3     3 "70 32 38 23 86 54 26 16  9  1 | 67 50 39 70 59 77 63 30  3 45 23 16 7…
 4     4 "33 50 19 63 92  1 58 34 84  8 | 35 61 49 86 40 20 22 71 84 51 64 62 3…
 5     5 "74  9 54 83 22 15 81 64 47 70 | 21 74 59 85 17 36  5 79 87  7 13 23 4…
 6     6 "29 55 56 13 58 71 36 30 15 11 | 99 17 90 29 22 68 61 55 11 13 37 94 3…
 7     7 "92 70 97 62 33 45 85 59 82 73 | 92 35 11 49 88 14 85 42 40 41 69 51 8…
 8     8 " 5 22 64 46 32 90 57 83 37 38 | 87 47 91 35 39 64 73 83 71 22 10 45  …
 9     9 " 7 49 62 79 37 91  3 58 74 19 | 17  7 58  2 53 95 52 62 83 41 42 36  …
10    10 "84 33 81 45 99 96 76 97 40  2 | 81 26 11 34 83 25 45 76  2 85 33 64 5…
# ℹ 202 more rows

card_data_split <- card_data %>%
  separate(
    data,
    into = c("my_numbers", "winning_numbers"),
    sep = " \\| "
  )

card_data_split

# A tibble: 212 × 3
      id my_numbers                      winning_numbers                        
   <int> <chr>                           <chr>                                  
 1     1 "69 12 75 19 83 56 73 53 52 91" 83 63 56 30 77 94 12 81 42 69 52 70  6…
 2     2 "23 55 24 84 90 10 87 73 74 45" 20 66 51 78  9 76 86 96 72 70 84 35 74…
 3     3 "70 32 38 23 86 54 26 16  9  1" 67 50 39 70 59 77 63 30  3 45 23 16 72…
 4     4 "33 50 19 63 92  1 58 34 84  8" 35 61 49 86 40 20 22 71 84 51 64 62 33…
 5     5 "74  9 54 83 22 15 81 64 47 70" 21 74 59 85 17 36  5 79 87  7 13 23 47…
 6     6 "29 55 56 13 58 71 36 30 15 11" 99 17 90 29 22 68 61 55 11 13 37 94 30…
 7     7 "92 70 97 62 33 45 85 59 82 73" 92 35 11 49 88 14 85 42 40 41 69 51 82…
 8     8 " 5 22 64 46 32 90 57 83 37 38" 87 47 91 35 39 64 73 83 71 22 10 45  1…
 9     9 " 7 49 62 79 37 91  3 58 74 19" 17  7 58  2 53 95 52 62 83 41 42 36  4…
10    10 "84 33 81 45 99 96 76 97 40  2" 81 26 11 34 83 25 45 76  2 85 33 64 57…
# ℹ 202 more rows
…
Function that takes two vectors and calcultes how many elements from the first one are in the second one:

calculate_n_winning <- function(x, y) {
  keep(x, ~magrittr::is_in(., y)) %>%
  length()
}

card_data_processed <-
  card_data_split %>%
  mutate(across(c(my_numbers, winning_numbers), to_numbers)) %>%
  mutate(n_winning = map2_dbl(my_numbers, winning_numbers, calculate_n_winning))

card_data_processed

# A tibble: 212 × 4
      id my_numbers winning_numbers n_winning
   <int> <list>     <list>              <dbl>
 1     1 <dbl [10]> <dbl [25]>             10
 2     2 <dbl [10]> <dbl [25]>              8
 3     3 <dbl [10]> <dbl [25]>             10
 4     4 <dbl [10]> <dbl [25]>              6
 5     5 <dbl [10]> <dbl [25]>              3
 6     6 <dbl [10]> <dbl [25]>              7
 7     7 <dbl [10]> <dbl [25]>             10
 8     8 <dbl [10]> <dbl [25]>              5
 9     9 <dbl [10]> <dbl [25]>              5
10    10 <dbl [10]> <dbl [25]>             10
# ℹ 202 more rows
…
