Advent of Code by Francisco Yirá - 2023: Day 1
…
Toggle the code

tibble(
  original = amended,
  new = original %>%
    str_replace_all(pattern = digits),
  digits = amended %>%
    str_replace_all(pattern = digits) %>%
    str_extract_all(pattern = '\\d') %>%
    map(get_first_and_last) %>%
    map(str_flatten) %>%
    as_vector()
)

# A tibble: 1,000 × 3
   original                                   new                         digits
   <chr>                                      <chr>                       <chr> 
 1 nqninenmvnpsz874                           nq9nmvnpsz874               94    
 2 8twofpmpxkvvdnpdnlpkhseven4ncgkb           82fpmpxkvvdnpdnlpkh74ncgkb  84    
 3 six8shdkdcdgseven8xczqrnnmthreecckfive     68shdkdcdg78xczqrnnm3cck5   65    
 4 qlcnz54dd75nine7jfnlfgz                    qlcnz54dd7597jfnlfgz        57    
 5 7vrdhggdkqbnltlgpkkvsdxn2mfpghkntzrhtjgtxr 7vrdhggdkqbnltlgpkkvsdxn2m… 72    
 6 cdhmktwo6kjqbprvfour8                      cdhmk26kjqbprv48            28    
 7 ninekkvkeight9three                        9kkvk893                    93    
 8 ms9five71lrfpqxqlbj                        ms9571lrfpqxqlbj            91    
 9 9five9sevenldshqfgcnq                      9597ldshqfgcnq              97    
10 1one4seven                                 1147                        17    
# ℹ 990 more rows
…
