Advent of Code by Francisco Yirá - 2023: Day 2
…
game_data

# A tibble: 100 × 2
      id data                                                                   
   <int> <chr>                                                                  
 1     1 8 green, 4 red, 4 blue; 1 green, 6 red, 4 blue; 7 red, 4 green, 1 blue…
 2     2 11 green, 7 blue, 15 red; 13 red, 6 green, 2 blue; 7 green, 9 red, 10 …
 3     3 7 red, 10 green, 4 blue; 2 blue, 3 green, 5 red; 9 red, 7 green, 3 blu…
 4     4 1 blue, 2 green, 5 red; 10 red, 1 blue, 3 green; 14 red                
 5     5 16 red, 4 green, 19 blue; 13 blue, 9 red; 7 green, 14 red, 2 blue; 5 g…
 6     6 3 blue, 8 green; 4 red, 5 green; 5 red, 8 blue, 5 green; 8 blue, 4 gre…
 7     7 7 red, 2 blue; 5 red, 6 green; 10 red; 2 blue, 12 red, 2 green; 4 red,…
 8     8 3 red, 7 green, 3 blue; 2 green, 3 blue, 3 red; 3 blue, 4 green, 1 red…
 9     9 5 red, 6 green; 6 red; 2 blue, 3 green, 9 red; 6 green, 2 blue         
10    10 5 red, 8 blue, 5 green; 15 red, 6 green, 7 blue; 8 blue, 6 red, 5 gree…
# ℹ 90 more rows
…
