Advent of Code by Francisco Yirá - 2023: Day 5
…
mapping

# A tibble: 22 × 3
   start_source end_source      offset
          <dbl>      <dbl>       <dbl>
 1            0 1107546828  2796039666
 2   1107546829 1316992002   477138010
 3   1316992003 1644649969  -323973875
 4   1644649970 1826903953 -1644649970
 5   1826903954 1875058986   920980679
 6   1875058987 1925497955 -1042373808
 7   1925497956 1997594927  -412910089
 8   1997594928 2192252667   -98198708
 9   2192252668 2196087923   450165507
10   2196087924 2276158913   364650230
# ℹ 12 more rows
…
